^D:\PROJECT VOICE RECOGNITION\LUCY\LUCY\FORM1.RESX|D:\PROJECT VOICE RECOGNITION\LUCY\LUCY\PROPERTIES\RESOURCES.RESX
D:\PROJECT VOICE RECOGNITION\LUCY\LUCY\OBJ\X86\RELEASE\LUCY.FORM1.RESOURCES
D:\PROJECT VOICE RECOGNITION\LUCY\LUCY\OBJ\X86\RELEASE\LUCY.PROPERTIES.RESOURCES.RESOURCES
^D:\PROJECT VOICE RECOGNITION\LUCY\LUCY\MAIN.RESX|D:\PROJECT VOICE RECOGNITION\LUCY\LUCY\PROPERTIES\RESOURCES.RESX
D:\PROJECT VOICE RECOGNITION\LUCY\LUCY\OBJ\X86\RELEASE\LUCY.MAIN.RESOURCES
D:\PROJECT VOICE RECOGNITION\LUCY\LUCY\OBJ\X86\RELEASE\LUCY.PROPERTIES.RESOURCES.RESOURCES
